{
    "functions": [],
    "remote_schemas": [],
    "query_collections": [],
    "allowlist": [],
    "version": 2,
    "tables": [
        {
            "table": {
                "schema": "parkirin",
                "name": "history"
            },
            "is_enum": false,
            "configuration": {
                "custom_root_fields": {
                    "select": null,
                    "select_by_pk": null,
                    "select_aggregate": null,
                    "insert": null,
                    "update": null,
                    "delete": null
                },
                "custom_column_names": {}
            },
            "object_relationships": [],
            "array_relationships": [],
            "insert_permissions": [],
            "select_permissions": [],
            "update_permissions": [],
            "delete_permissions": [],
            "event_triggers": [],
            "computed_fields": []
        },
        {
            "table": {
                "schema": "parkirin",
                "name": "parkirin"
            },
            "is_enum": false,
            "configuration": {
                "custom_root_fields": {
                    "select": null,
                    "select_by_pk": null,
                    "select_aggregate": null,
                    "insert": null,
                    "update": null,
                    "delete": null
                },
                "custom_column_names": {}
            },
            "object_relationships": [],
            "array_relationships": [
                {
                    "using": {
                        "foreign_key_constraint_on": {
                            "column": "parkirinid",
                            "table": {
                                "schema": "parkirin",
                                "name": "zoneslots"
                            }
                        }
                    },
                    "name": "zoneslots",
                    "comment": null
                }
            ],
            "insert_permissions": [],
            "select_permissions": [],
            "update_permissions": [],
            "delete_permissions": [],
            "event_triggers": [],
            "computed_fields": []
        },
        {
            "table": {
                "schema": "parkirin",
                "name": "price"
            },
            "is_enum": false,
            "configuration": {
                "custom_root_fields": {
                    "select": null,
                    "select_by_pk": null,
                    "select_aggregate": null,
                    "insert": null,
                    "update": null,
                    "delete": null
                },
                "custom_column_names": {}
            },
            "object_relationships": [],
            "array_relationships": [],
            "insert_permissions": [],
            "select_permissions": [],
            "update_permissions": [],
            "delete_permissions": [],
            "event_triggers": [],
            "computed_fields": []
        },
        {
            "table": {
                "schema": "parkirin",
                "name": "slots"
            },
            "is_enum": false,
            "configuration": {
                "custom_root_fields": {
                    "select": null,
                    "select_by_pk": null,
                    "select_aggregate": null,
                    "insert": null,
                    "update": null,
                    "delete": null
                },
                "custom_column_names": {}
            },
            "object_relationships": [
                {
                    "using": {
                        "manual_configuration": {
                            "remote_table": {
                                "schema": "parkirin",
                                "name": "zoneslots"
                            },
                            "column_mapping": {
                                "parkirinid": "parkirinid",
                                "zoneslotid": "id"
                            }
                        }
                    },
                    "name": "zoneslot",
                    "comment": null
                }
            ],
            "array_relationships": [],
            "insert_permissions": [],
            "select_permissions": [],
            "update_permissions": [],
            "delete_permissions": [],
            "event_triggers": [],
            "computed_fields": []
        },
        {
            "table": {
                "schema": "parkirin",
                "name": "zoneslots"
            },
            "is_enum": false,
            "configuration": {
                "custom_root_fields": {
                    "select": null,
                    "select_by_pk": null,
                    "select_aggregate": null,
                    "insert": null,
                    "update": null,
                    "delete": null
                },
                "custom_column_names": {}
            },
            "object_relationships": [
                {
                    "using": {
                        "foreign_key_constraint_on": "parkirinid"
                    },
                    "name": "parkirin",
                    "comment": null
                }
            ],
            "array_relationships": [
                {
                    "using": {
                        "manual_configuration": {
                            "remote_table": {
                                "schema": "parkirin",
                                "name": "slots"
                            },
                            "column_mapping": {
                                "parkirinid": "parkirinid",
                                "id": "zoneslotid"
                            }
                        }
                    },
                    "name": "slots",
                    "comment": null
                }
            ],
            "insert_permissions": [],
            "select_permissions": [],
            "update_permissions": [],
            "delete_permissions": [],
            "event_triggers": [],
            "computed_fields": []
        }
    ]
}